{
  "pilots": [
    {
      "id": 0,
      "name": "Adam",
      "surname": "Lz",
      "avatar": "img/pilots/adam_lz.png"
    },
    {
      "id": 1,
      "name": "Alec",
      "surname": "Robbins",
      "avatar": "img/pilots/alec_robbins.png"
    },
    {
      "id": 2,
      "name": "Aurimas",
      "surname": "Bakchis",
      "avatar": "img/pilots/AURIMAS_BAKCHIS.png"
    },
    {
      "id": 3,
      "name": "Branden",
      "surname": "Sorensen",
      "avatar": "img/pilots/BRANDEN_SORENSEN.png"
    },
    {
      "id": 4,
      "name": "Chelsea",
      "surname": "Denofa",
      "avatar": "img/pilots/CHELSEA_DENOFA.png"
    },
    {
      "id": 5,
      "name": "Chris",
      "surname": "Forsberg",
      "avatar": "img/pilots/CHRIS_FORSBERG.png"
    },
    {
      "id": 6,
      "name": "Daijiro.png",
      "surname": "Yoshihara",
      "avatar": "img/pilots/DAIJIRO_YOSHIHARA.png"
    },
    {
      "id": 7,
      "name": "Dan",
      "surname": "Burkett",
      "avatar": "img/pilots/DAN_BURKETT.png"
    },
    {
      "id": 8,
      "name": "Dean",
      "surname": "Kearney",
      "avatar": "img/pilots/DEAN_KEARNEY.png"
    },
    {
      "id": 9,
      "name": "Dylan",
      "surname": "Hughes",
      "avatar": "img/pilots/DYLAN_HUGHES.png"
    },
    {
      "id": 10,
      "name": "Faruk",
      "surname": "Kugay",
      "avatar": "img/pilots/FARUK_KUGAY.png"
    },
    {
      "id": 11,
      "name": "Federico",
      "surname": "Sceriffo",
      "avatar": "img/pilots/FEDERICO_SCERIFFO.png"
    },
    {
      "id": 12,
      "name": "Fredric",
      "surname": "Aasbo",
      "avatar": "img/pilots/FREDRIC_AASBO.png"
    },
    {
      "id": 13,
      "name": "Jeff",
      "surname": "Jones",
      "avatar": "img/pilots/JEFF_JONES.png"
    },
    {
      "id": 14,
      "name": "Jhonnattan",
      "surname": "Castro",
      "avatar": "img/pilots/JHONNATTAN_CASTRO.png"
    },
    {
      "id": 15,
      "name": "Joao",
      "surname": "Barion",
      "avatar": "img/pilots/JOAO_BARION.png"
    },
    {
      "id": 16,
      "name": "Jonathan",
      "surname": "Hurst",
      "avatar": "img/pilots/JONATHAN_HURST.png"
    },
    {
      "id": 17,
      "name": "Jonathan",
      "surname": "Nerren",
      "avatar": "img/pilots/JONATHAN_NERREN.png"
    },
    {
      "id": 18,
      "name": "Joshua",
      "surname": "C Reynolds",
      "avatar": "img/pilots/JOSHUA_C_REYNOLDS.png"
    },
    {
      "id": 19,
      "name": "Justin",
      "surname": "Pawlak",
      "avatar": "img/pilots/JUSTIN_PAWLAK.png"
    },
    {
      "id": 20,
      "name": "Kazuya",
      "surname": "Taguchi",
      "avatar": "img/pilots/KAZUYA_TAGUCHI.png"
    },
    {
      "id": 21,
      "name": "Ken",
      "surname": "Gushi",
      "avatar": "img/pilots/KEN_GUSHI.png"
    },
    {
      "id": 22,
      "name": "Kyle",
      "surname": "Mohan",
      "avatar": "img/pilots/KYLE_MOHAN.png"
    },
    {
      "id": 23,
      "name": "Matt",
      "surname": "Field",
      "avatar": "img/pilots/MATT_FIELD.png"
    },
    {
      "id": 24,
      "name": "Michael",
      "surname": "Essa",
      "avatar": "img/pilots/MICHAEL_ESSA.png"
    },
    {
      "id": 25,
      "name": "Rome",
      "surname": "Charpentier",
      "avatar": "img/pilots/ROME_CHARPENTIER.png"
    },
    {
      "id": 26,
      "name": "Ryan",
      "surname": "Litteral",
      "avatar": "img/pilots/RYAN_LITTERAL.png"
    },
    {
      "id": 27,
      "name": "Ryan",
      "surname": "Tuerck",
      "avatar": "img/pilots/RYAN_TUERCK.png"
    },
    {
      "id": 28,
      "name": "Simen",
      "surname": "Olsen",
      "avatar": "img/pilots/SIMEN_OLSEN.png"
    },
    {
      "id": 29,
      "name": "Taylor",
      "surname": "Hull",
      "avatar": "img/pilots/TAYLOR_HULL.png"
    },
    {
      "id": 30,
      "name": "Travis",
      "surname": "Reeder",
      "avatar": "img/pilots/TRAVIS_REEDER.png"
    },
    {
      "id": 31,
      "name": "Trenton",
      "surname": "Beechum",
      "avatar": "img/pilots/TRENTON_BEECHUM.png"
    },
    {
      "id": 32,
      "name": "Tyler",
      "surname": "Nelson",
      "avatar": "img/pilots/TYLER_NELSON.png"
    },
    {
      "id": 33,
      "name": "Vaughn",
      "surname": "Gittin jr.",
      "avatar": "img/pilots/VAUGHN_GITTIN_JR.png"
    },
    {
      "id": 34,
      "name": "Wataru",
      "surname": "Masuyama",
      "avatar": "img/pilots/WATARU_MASUYAMA.png"
    },
    {
      "id": 35,
      "name": "Yves",
      "surname": "Meyer",
      "avatar": "img/pilots/YVES_MEYER.png"
    }
  ]
}